^C:\USERS\ОНТОН\SOURCE\REPOS\HOMEWORK17.5\HOMEWORK17.5.CPP
C:\USERS\Онтон\SOURCE\REPOS\HOMEWORK17.5\DEBUG\VC142.PDB
C:\USERS\Онтон\SOURCE\REPOS\HOMEWORK17.5\DEBUG\VC142.IDB
C:\USERS\Онтон\SOURCE\REPOS\HOMEWORK17.5\DEBUG\HOMEWORK17.5.OBJ
